{
	"vertexFormat": "V2_C3",
	"vertices": [
		[[-300, -300], [1.0, 1.0, 1.0]],
		[[ 300, -300], [1.0, 1.0, 1.0]],
		[[ 300,  300], [1.0, 1.0, 1.0]],
		[[-300,  300], [1.0, 1.0, 1.0]],

		[[-160, -160], [1.0, 1.0, 1.0]],
		[[-100, -160], [1.0, 1.0, 1.0]],
		[[-100, -150], [1.0, 1.0, 1.0]],
		[[-150, -150], [1.0, 1.0, 1.0]], 
		[[-150, -100], [1.0, 1.0, 1.0]],
		[[-160, -100], [1.0, 1.0, 1.0]],

		[[160, -160], [1.0, 1.0, 1.0]],
		[[160, -100], [1.0, 1.0, 1.0]],
		[[150, -100], [1.0, 1.0, 1.0]],
		[[150, -150], [1.0, 1.0, 1.0]],
		[[100, -150], [1.0, 1.0, 1.0]],
		[[100, -160], [1.0, 1.0, 1.0]],

		[[-160, 160], [1.0, 1.0, 1.0]],
		[[-160, 100], [1.0, 1.0, 1.0]],
		[[-150, 100], [1.0, 1.0, 1.0]],
		[[-150, 150], [1.0, 1.0, 1.0]],
		[[-100, 150], [1.0, 1.0, 1.0]],
		[[-100, 160], [1.0, 1.0, 1.0]],

		[[160, 160], [1.0, 1.0, 1.0]],
		[[100, 160], [1.0, 1.0, 1.0]],
		[[100, 150], [1.0, 1.0, 1.0]],
		[[150, 150], [1.0, 1.0, 1.0]],
		[[150, 100], [1.0, 1.0, 1.0]],
		[[160, 100], [1.0, 1.0, 1.0]],

		[[-55, 60], [1.0, 1.0, 1.0]],
		[[-45, 60], [1.0, 1.0, 1.0]],
		[[-45, 30], [1.0, 1.0, 1.0]],
		[[-55, 30], [1.0, 1.0, 1.0]],

		[[55, 60], [1.0, 1.0, 1.0]],
		[[45, 60], [1.0, 1.0, 1.0]],
		[[45, 30], [1.0, 1.0, 1.0]],
		[[55, 30], [1.0, 1.0, 1.0]],

		[[-55, -60], [1.0, 1.0, 1.0]],
		[[-45, -60], [1.0, 1.0, 1.0]],
		[[-45, -30], [1.0, 1.0, 1.0]],
		[[-55, -30], [1.0, 1.0, 1.0]],

		[[55, -60], [1.0, 1.0, 1.0]],
		[[45, -60], [1.0, 1.0, 1.0]],
		[[45, -30], [1.0, 1.0, 1.0]],
		[[55, -30], [1.0, 1.0, 1.0]]
	], 
	"faces": [
		{
			"primitive": "LINE_LOOP",
			"indices": [
				 0,  1,  2,  3
			]
		},
		{
			"primitive": "LINE_LOOP",
			"indices": [
				 4, 5, 6, 7, 8, 9
			]
		},
		{
			"primitive": "LINE_LOOP",
			"indices": [
				 10, 11, 12, 13, 14, 15
			]
		},
		{
			"primitive": "LINE_LOOP",
			"indices": [
				 16, 17, 18, 19, 20, 21
			]
		},
		{
			"primitive": "LINE_LOOP",
			"indices": [
				 22, 23, 24, 25, 26, 27
			]
		},
		{
			"primitive": "LINE_LOOP",
			"indices": [
				 28, 29, 30, 31
			]
		},
		{
			"primitive": "LINE_LOOP",
			"indices": [
				 32, 33, 34, 35
			]
		},
		{
			"primitive": "LINE_LOOP",
			"indices": [
				 36, 37, 38, 39
			]
		},
		{
			"primitive": "LINE_LOOP",
			"indices": [
				 40, 41, 42, 43
			]
		}
	]
}
